{
"data":0,
"backgrounds":["Bedroom","Blue Wave","Cafe","Castle","Class Room","Disco","Fairly Tale","Lab","Landscape","Ski Slopes","Soccer Stadium","Space","Splatter Paint","Spotlight","Spring","Stage","Super Market","Under the Sea","Wild West","Woods"],
"char":["All","Animals","Anime","Cats","Classic","Digimon","Dogs","Edgy","Fantasy","Folk","Holiday","Monsters","Oddballs","POLITICS","Randoms","Smilies","Toons","VIP","World","3D","Beach"],
"Animals":["Apollo_316","Bat_790","Bumble_892","Capuchin Monkey_1067","Chester_505","Dash_406","Earl Bear_672","Electric Sheep_680","Fran_404","Harry_228","icons","Jaws_92","Johnson Snail_678","Koala Kiku_934","Maddie Panda_732","Squeaks_412","Turkey_110","Wilbur_405"],
"Anime":["Aiko_217","Akira_1083","Anna_473","Dai_475","Hiro_214","icons","Kai_472","Kasumi_215","Kentaro_1064","Mika_216","Nari_208","Sakura_486","Yuri_476"],
"Cats":["Abysinian_2587","Birman_2586","icons","Kit Cat_225","Mainecoon_2588","Persian_2582","Pixie_411","Ragdoll_2650","Scottishfold_2644","Siamese_2645"],
"VIP":["Ali G_2666","Borat_2251","Britney Spears_1115","Bruno_2269","icons"],
"Classic":["Abdul_3370","Abigail_3281","Aneesa_2469","Ashley_1105","Beth_2081","Brenda_108","Bryan_103","Bryson_2931","Carson_104","Chloe_107","Dana_156","Diane_55","icons","Jenny_60"],
"Digimon":["Falcomon_2534","Gaomon_2530","icons","Kamemon_2505","Keenan_2544","Kudamon_2538","Lalamon_2498","Masaru_2418","Sampson_2535","Thomas_2540","Yoshi_2539"],
"Dogs" :["Airedale Terrier_2443","Akita Inu_2455","Alaskan Malamute_2453","Basset Hound_2454","Beagle_2436","Boston Terrier_2730","Boxer_2467","Cocker Spaniel_2427","Dalmatian_2518","Doberman Pinscher_2513","Dusty_403","German Shepherd_2205","Great Dane_2711","icons","Little Britain_2386","Miniature Schnauzer_2689","Moke Dog_1045","Pomeranian_2383","Poodle_2554","Rottweiler_2517","Saint Bernard_2512","Schipperke_2536","Sparky_218","Winston_1051","Yorkshire Terrier_2623"],
"Edgy" :["Cheryl_1196","Elise_771","icons","Layne_763","Nitro_835","Pink_891","Todd_1227"],
"Fantasy":["Evil Queen_27096","Fairy_26969","Genie_27304","Gnome_27189","icons","Jester_27061","Knight_26877","Mermaid_27370","Prince_26346","Princess_25515","Unicorn_26949"],
"Folk":["African Man_31238","African Woman_31258","Bedouin Man_33248","Bedouin Woman_33246","Chinese Man_31288","Chinese Woman_31323","German Man_31365","German Woman_31576","icons","Indian Man_31593","Indian Woman_28332","Inuit Man_32995","Inuit Woman_28548","Japanese Man_32917","Japanese Woman_32920"],
"World":["Abe Lincoln_431","Buddha_436","George Washington_800","icons","Jesus_434","Mahatma Gandhi_433","Marie Antoinette_128","Moses_435","Uncle Sam_679"],
"Holiday":["Alvar_2448","Alvina_2444","Drummer Boy_408","Easter Bunny_183","Easter Egg_184","Elf_386","Ginger Man_409","Happy Heart_154","icons","Kaya_2402","Leprechaun_172","Mrs. Claus_950","Pilgrim Man_941","Pilgrim Woman_942","Pumpkin_100","Rudolph_956","Santa Too_382","Santa_109","Scrooge_396","Snowman_102","Turkey_110"],
"Monsters":["Alien Prime_90","Bat_790","Bones_97","Dracula_93","Dragon_94","Frankenstein_95","Friendly Ghost_477","Ghost_793","icons","Jaws_92","Pirate_96","Werewolf_98","Witch_799","Wizard_798","Zombie_99"],
"Oddballs":["Toon Bam_1310","icons","Toon Cam_1304","Toon Pam_1309","Toon Sam_1214","Toon Tam_1283"],
"POLITICS":["Angela Merkel_13791","Barack Obama_2904","Bill Clinton_773","David Cameron_13753","Donald Trump_35899","GW Bush_167","Francois Hollande_24636","Hillary Clinton_646","icons","Joe Biden_1469","John Kerry_596","John McCain_640","Julia Gillard_24393","Junichiro Koizumi_301","Mitt Romney_788","Nicolas Sarkozy_13788","Ronald Reagan_760","Sarah Palin_3461","Silvio Berlusconi_13824","Stephen Harper_1043","Tony Blair_296","Vladimir Putin_806"],
"Randoms":["Alien_481","AstroGeorge_690","Bumble_892","Chuck Sockpuppet_731","Daisy_682","Densha_1356","Farmer Joe_34710","Flower_504","Friendly Ghost_477","Ghost_793","Holly Dae_2209","Hotdog_652","icons","Jasper_675","Joey Babydoll_491","Johnny Corn_890","Karuda_1351","Kaya_2402","Llily Babydoll_492","Looney Larry_691","MotoKai_1384","Muggie_2284","Nova_1295","Obake_1446","Robot_482","Skully_2166","Sumo Wrestler_270","Switch_232","Thingers Quincy_2025","Witch_799","Wizard_798"],
"Smilies":["Bashful_273","Cheerful_271","Crazy_272","Doc_274","Happy Face_237","icons","Sweety_275"],
"Toons":["Cherie_2617","icons","Melinda_689","Merlin_684","Teen Danielle_749","Teen Jake_742","Teen Kevin_736","Teen Ryan_626","Teen Stacey_743","Teen Zack_625"],
"3D":["Amber_1380","Angela_754","Erik_2261","Ginger_2014","icons","Juliette_76","Lilly_1302","Tom_77"],
"Beach":["Beach Dude_283","Beach Kid_284","icons","Lifeguard Vince_286","Scuba Stephanie_285"]
}
